<?xml version="1.0" encoding="UTF-8"?>
<glyph name="ydieresis" format="1">
  <advance width="708"/>
  <unicode hex="00FF"/>
  <outline>
    <contour>
      <point x="500" y="822" type="line"/>
      <point x="439" y="883" type="line"/>
      <point x="439" y="883" type="line"/>
      <point x="378" y="822" type="line"/>
      <point x="378" y="822" type="line"/>
      <point x="439" y="761" type="line"/>
      <point x="439" y="761" type="line"/>
    </contour>
    <contour>
      <point x="320" y="822" type="line"/>
      <point x="259" y="883" type="line"/>
      <point x="259" y="883" type="line"/>
      <point x="198" y="822" type="line"/>
      <point x="198" y="822" type="line"/>
      <point x="259" y="761" type="line"/>
      <point x="259" y="761" type="line"/>
    </contour>
    <component base="y"/>
  </outline>
</glyph>
