<?xml version="1.0" encoding="UTF-8"?>
<glyph name="v" format="1">
  <advance width="520"/>
  <unicode hex="0076"/>
  <outline>
    <contour>
      <point x="347" y="450" type="line"/>
      <point x="385" y="410" type="line"/>
      <point x="283" y="180" type="line"/>
      <point x="243" y="82" type="line"/>
      <point x="277" y="82" type="line"/>
      <point x="238" y="180" type="line"/>
      <point x="135" y="410" type="line"/>
      <point x="174" y="450" type="line"/>
      <point x="-5" y="450" type="line"/>
      <point x="89" y="356" type="line"/>
      <point x="260" y="-14" type="line"/>
      <point x="431" y="356" type="line"/>
      <point x="525" y="450" type="line"/>
    </contour>
  </outline>
  <lib>
    <dict>
      <key>com.typemytype.robofont.layerData</key>
      <dict>
        <key>background</key>
        <dict>
          <key>anchors</key>
          <array>
          </array>
          <key>components</key>
          <array>
          </array>
          <key>contours</key>
          <array>
            <dict>
              <key>points</key>
              <array>
                <dict>
                  <key>segmentType</key>
                  <string>line</string>
                  <key>smooth</key>
                  <false/>
                  <key>x</key>
                  <real>360.6</real>
                  <key>y</key>
                  <real>569.6</real>
                </dict>
                <dict>
                  <key>segmentType</key>
                  <string>line</string>
                  <key>smooth</key>
                  <false/>
                  <key>x</key>
                  <real>395.0</real>
                  <key>y</key>
                  <real>534.4</real>
                </dict>
                <dict>
                  <key>segmentType</key>
                  <string>line</string>
                  <key>smooth</key>
                  <false/>
                  <key>x</key>
                  <real>230.20000000000002</real>
                  <key>y</key>
                  <real>130.4</real>
                </dict>
                <dict>
                  <key>segmentType</key>
                  <string>line</string>
                  <key>smooth</key>
                  <false/>
                  <key>x</key>
                  <real>65.4</real>
                  <key>y</key>
                  <real>534.4</real>
                </dict>
                <dict>
                  <key>segmentType</key>
                  <string>line</string>
                  <key>smooth</key>
                  <false/>
                  <key>x</key>
                  <real>99.80000000000001</real>
                  <key>y</key>
                  <real>569.6</real>
                </dict>
                <dict>
                  <key>segmentType</key>
                  <string>line</string>
                  <key>smooth</key>
                  <false/>
                  <key>x</key>
                  <real>-58.6</real>
                  <key>y</key>
                  <real>569.6</real>
                </dict>
                <dict>
                  <key>segmentType</key>
                  <string>line</string>
                  <key>smooth</key>
                  <false/>
                  <key>x</key>
                  <real>24.6</real>
                  <key>y</key>
                  <real>486.40000000000003</real>
                </dict>
                <dict>
                  <key>segmentType</key>
                  <string>line</string>
                  <key>smooth</key>
                  <false/>
                  <key>x</key>
                  <real>230.20000000000002</real>
                  <key>y</key>
                  <real>-13.600000000000001</real>
                </dict>
                <dict>
                  <key>segmentType</key>
                  <string>line</string>
                  <key>smooth</key>
                  <false/>
                  <key>x</key>
                  <real>435.8</real>
                  <key>y</key>
                  <real>486.40000000000003</real>
                </dict>
                <dict>
                  <key>segmentType</key>
                  <string>line</string>
                  <key>smooth</key>
                  <false/>
                  <key>x</key>
                  <real>519.0</real>
                  <key>y</key>
                  <real>569.6</real>
                </dict>
              </array>
            </dict>
            <dict>
              <key>points</key>
              <array>
                <dict>
                  <key>segmentType</key>
                  <string>line</string>
                  <key>smooth</key>
                  <false/>
                  <key>x</key>
                  <real>307.0</real>
                  <key>y</key>
                  <real>399.20000000000005</real>
                </dict>
                <dict>
                  <key>segmentType</key>
                  <string>line</string>
                  <key>smooth</key>
                  <false/>
                  <key>x</key>
                  <real>341.40000000000003</real>
                  <key>y</key>
                  <real>364.0</real>
                </dict>
                <dict>
                  <key>segmentType</key>
                  <string>line</string>
                  <key>smooth</key>
                  <false/>
                  <key>x</key>
                  <real>215.0</real>
                  <key>y</key>
                  <real>88.0</real>
                </dict>
                <dict>
                  <key>segmentType</key>
                  <string>line</string>
                  <key>smooth</key>
                  <false/>
                  <key>x</key>
                  <real>245.4</real>
                  <key>y</key>
                  <real>88.0</real>
                </dict>
                <dict>
                  <key>segmentType</key>
                  <string>line</string>
                  <key>smooth</key>
                  <false/>
                  <key>x</key>
                  <real>119.0</real>
                  <key>y</key>
                  <real>364.0</real>
                </dict>
                <dict>
                  <key>segmentType</key>
                  <string>line</string>
                  <key>smooth</key>
                  <false/>
                  <key>x</key>
                  <real>153.4</real>
                  <key>y</key>
                  <real>399.20000000000005</real>
                </dict>
                <dict>
                  <key>segmentType</key>
                  <string>line</string>
                  <key>smooth</key>
                  <false/>
                  <key>x</key>
                  <real>-5.0</real>
                  <key>y</key>
                  <real>399.20000000000005</real>
                </dict>
                <dict>
                  <key>segmentType</key>
                  <string>line</string>
                  <key>smooth</key>
                  <false/>
                  <key>x</key>
                  <real>78.2</real>
                  <key>y</key>
                  <real>316.0</real>
                </dict>
                <dict>
                  <key>segmentType</key>
                  <string>line</string>
                  <key>smooth</key>
                  <false/>
                  <key>x</key>
                  <real>230.20000000000002</real>
                  <key>y</key>
                  <real>-13.600000000000001</real>
                </dict>
                <dict>
                  <key>segmentType</key>
                  <string>line</string>
                  <key>smooth</key>
                  <false/>
                  <key>x</key>
                  <real>382.20000000000005</real>
                  <key>y</key>
                  <real>316.0</real>
                </dict>
                <dict>
                  <key>segmentType</key>
                  <string>line</string>
                  <key>smooth</key>
                  <false/>
                  <key>x</key>
                  <real>465.40000000000003</real>
                  <key>y</key>
                  <real>399.20000000000005</real>
                </dict>
              </array>
            </dict>
          </array>
          <key>lib</key>
          <dict>
          </dict>
          <key>name</key>
          <string>v</string>
          <key>unicodes</key>
          <array>
          </array>
          <key>width</key>
          <integer>520</integer>
        </dict>
      </dict>
    </dict>
  </lib>
</glyph>
